Country Name,Country Code,Continent,gdp/capita,population
Afghanistan,AFG,O,1989.6132924252,30551674
Albania,ALB,E,10488.8225273186,2773620
Algeria,DZA,O,13304.0120425689,39208194
Angola,AGO,O,7538.1911705644,21471618
Antigua and Barbuda,ATG,O,20976.5059543774,89985
Armenia,ARM,O,7774.3847839604,2976566
Australia,AUS,O,43550.0818923038,23130900
Austria,AUT,E,44149.2129944003,8473786
Azerbaijan,AZE,O,17139.2877347695,9416598
Bahrain,BHR,O,43823.506400795,1332171
Bangladesh,BGD,O,2557.4059337351,156594962
Belarus,BLR,E,17615.4617199328,9466000
Belgium,BEL,E,40338.1460668302,11195138
Belize,BLZ,O,8441.7739449999,331900
Benin,BEN,O,1790.9619749118,10323474
Bhutan,BTN,O,7669.2427231075,753947
Bolivia,BOL,O,6129.5626777684,10671200
Bosnia and Herzegovina,BIH,E,9632.3835416358,3829307
Botswana,BWA,O,15675.2287474286,2021144
Brazil,BRA,O,15033.7808938686,200361925
Brunei Darussalam,BRN,O,71759.0990174481,417784
Bulgaria,BGR,E,15940.5437767067,7265115
Burkina Faso,BFA,O,1634.020188617,16934839
Burundi,BDI,O,770.6177595609,10162532
Cabo Verde,CPV,O,6412.3760197936,498897
Cambodia,KHM,O,3041.8487746391,15135169
Cameroon,CMR,O,2711.0405092375,22253959
Canada,CAN,O,43247.0443447575,35158304
Central African Republic,CAF,O,603.5953479677,4616417
Chad,TCD,O,2080.7399094872,12825314
Chile,CHL,O,21911.3009745228,17619708
China,CHN,O,11903.5963385802,1357380000
Colombia,COL,O,12370.9430870672,48321405
Comoros,COM,O,1558.7834633729,734917
"Congo, Dem. Rep.",COD,O,746.7550804686,67513677
"Congo, Rep.",COG,O,5867.0457397338,4447632
Costa Rica,CRI,O,13872.4637832663,4872166
Cote d'Ivoire,CIV,O,3011.9274848726,20316086
Croatia,HRV,E,20904.0930552729,4252700
Cyprus,CYP,E,29450.0927378522,1141166
Czech Republic,CZE,E,27344.2703641341,10521468
Denmark,DNK,E,42763.7551376858,5613706
Djibouti,DJI,O,2998.0074101626,872932
Dominica,DMA,O,10029.5186951405,72003
Dominican Republic,DOM,O,11695.7828348624,10403761
Ecuador,ECU,O,10468.7324863514,15737878
"Egypt, Arab Rep.",EGY,O,11084.7485964548,82056378
El Salvador,SLV,O,7762.2444544962,6340454
Equatorial Guinea,GNQ,O,33720.2207834462,757014
Eritrea,ERI,O,1195.3844208859,6333135
Estonia,EST,E,25048.6865082576,1324612
Ethiopia,ETH,O,1353.7927412077,94100756
Fiji,FJI,O,7948.2644380293,881065
Finland,FIN,E,38250.6596962464,5439407
France,FRA,E,36907.2703444179,66028467
Gabon,GAB,O,19259.6259158549,1671711
"Gambia, The",GMB,O,1666.3752352715,1849285
Georgia,GEO,O,7164.5813351213,4476900
Germany,DEU,E,43331.6961569095,80621788
Ghana,GHA,O,3974.495298656,25904598
Greece,GRC,E,25650.9603475335,11032328
Grenada,GRD,O,11497.981844052,105897
Guatemala,GTM,O,7294.8008632886,15468203
Guinea,GIN,O,1255.227825154,11745189
Guinea-Bissau,GNB,O,1242.4515266245,1704255
Guyana,GUY,O,6550.9714746539,799613
Haiti,HTI,O,1702.6129681122,10317461
Honduras,HND,O,4591.4705354994,8097688
"Hong Kong SAR, China",HKG,O,53202.9263700728,7187500
Hungary,HUN,E,22877.512014427,9897247
Iceland,ISL,E,39996.0692879195,323002
India,IND,O,5410.2919964522,1252139596
Indonesia,IDN,O,9558.7887091317,249865631
"Iran, Islamic Rep.",IRN,O,15586.3402583748,77447168
Iraq,IRQ,O,15187.8668979004,33417476
Ireland,IRL,E,43304.2533376186,4595281
Israel,ISR,O,32760.4112142528,8059400
Italy,ITA,E,34302.6271840858,59831093
Jamaica,JAM,O,8889.7175240076,2715000
Japan,JPN,O,36315.4508957567,127338621
Jordan,JOR,O,11781.6233151705,6459000
Kazakhstan,KAZ,O,23205.6376685036,17037508
Kenya,KEN,O,2264.6998454383,44353691
Kiribati,KIR,O,1855.3750048334,102351
"Korea, Rep.",KOR,O,33139.5820334768,50219669
Kosovo,KSV,E,8739.603451483,1824000
Kyrgyz Republic,KGZ,O,3212.1534023837,5719500
Lao PDR,LAO,O,4812.0082613497,6769727
Latvia,LVA,E,23028.0507870576,2013385
Lebanon,LBN,O,17169.6433264589,4467390
Lesotho,LSO,O,2585.6508023107,2074465
Liberia,LBR,O,877.7808150005,4294077
Libya,LBY,O,21397.2563158012,6201521
Lithuania,LTU,E,25416.7038829313,2956121
Luxembourg,LUX,E,90789.6466182457,543202
"Macao SAR, China",MAC,O,142564.375590854,566375
"Macedonia, FYR",MKD,E,11802.3717546351,2107158
Madagascar,MDG,O,1394.6481606826,22924851
Malawi,MWI,O,779.8124011045,16362567
Malaysia,MYS,O,23297.6255555944,29716965
Maldives,MDV,O,11653.8928266447,345023
Mali,MLI,O,1641.4331017926,15301650
Malta,MLT,E,30213.0712370858,423282
Marshall Islands,MHL,O,3710.3486257095,52634
Mauritania,MRT,O,3042.4945178299,3889880
Mauritius,MUS,O,17199.9523400188,1296303
Mexico,MEX,O,16463.392673388,122332399
"Micronesia, Fed. Sts.",FSM,O,3558.0891474946,103549
Moldova,MDA,E,4669.2344227615,3559000
Mongolia,MNG,O,9432.6559729667,2839073
Montenegro,MNE,E,14318.3630314046,621383
Morocco,MAR,O,7200.4123684871,33008150
Mozambique,MOZ,O,1045.381433308,25833752
Namibia,NAM,O,9684.9895163689,2303315
Nepal,NPL,O,2244.2507872889,27797457
Netherlands,NLD,E,43403.7168189211,16804224
New Zealand,NZL,O,34825.6342083276,4470800
Nicaragua,NIC,O,4570.8328631872,6080478
Niger,NER,O,912.5743143134,17831270
Nigeria,NGA,O,5601.0390374502,173615345
Norway,NOR,E,65461.1653874422,5084190
Oman,OMN,O,44051.8670632367,3632444
Pakistan,PAK,O,4698.8887556044,182142594
Palau,PLW,O,15092.3039206849,20918
Panama,PAN,O,19411.4848553484,3864170
Papua New Guinea,PNG,O,2538.4609127879,7321262
Paraguay,PRY,O,8043.0246426184,6802295
Peru,PER,O,11775.3677700981,30375603
Philippines,PHL,O,6532.5843243401,98393574
Poland,POL,E,23274.8028638442,38530725
Portugal,PRT,E,25899.5328942527,10459806
Puerto Rico,PRI,O,34743.8792982679,3615086
Qatar,QAT,O,131757.562355382,2168673
Romania,ROU,E,18634.7987108697,19963581
Russian Federation,RUS,E,24120.2932152324,143499861
Rwanda,RWA,O,1451.7503696789,11776522
Samoa,WSM,O,5053.7337575959,190372
Sao Tome and Principe,STP,O,2970.340670223,192993
Saudi Arabia,SAU,O,53780.417220246,28828870
Senegal,SEN,O,2268.5757104731,14133280
Serbia,SRB,E,12373.9881850575,7163976
Seychelles,SYC,O,24188.6491069447,89173
Sierra Leone,SLE,O,1926.5204596444,6092075
Singapore,SGP,O,78744.1277308431,5399200
Slovak Republic,SVK,E,26114.4879329855,5414095
Slovenia,SVN,E,28298.4103311297,2060484
Solomon Islands,SLB,O,2068.4552126705,561231
South Africa,ZAF,O,12503.6916446945,52981991
South Sudan,SSD,O,2330.0116958537,11296173
Spain,ESP,E,32103.4833830297,46647421
Sri Lanka,LKA,O,9735.7382577056,20483000
St. Kitts and Nevis,KNA,O,20929.4940487465,54191
St. Lucia,LCA,O,10560.2879385193,182273
St. Vincent and the Grenadines,VCT,O,10663.2993516928,109373
Sudan,SDN,O,3372.1489864157,37964306
Suriname,SUR,O,16226.1841884732,539276
Swaziland,SWZ,O,6683.4982701862,1249514
Sweden,SWE,E,43533.4781195051,9592552
Switzerland,CHE,E,53671.8586183458,8081482
Tajikistan,TJK,O,2511.6333356656,8207834
Tanzania,TZA,O,1774.6245900239,49253126
Thailand,THA,O,14390.0115646258,67010502
Timor-Leste,TLS,O,2241.8876801735,1178252
Togo,TGO,O,1390.1797365474,6816982
Tonga,TON,O,5302.9098396838,105323
Trinidad and Tobago,TTO,O,30438.5636578048,1341151
Tunisia,TUN,O,11092.1478060064,10886500
Turkey,TUR,O,18975.4557573468,74932641
Turkmenistan,TKM,O,14000.7361167046,5240072
Tuvalu,TUV,O,3637.1367831889,9876
Uganda,UGA,O,1410.0288890974,37578876
Ukraine,UKR,E,8787.8328983548,45489600
United Kingdom,GBR,E,36196.7179815079,64097085
United States,USA,O,53142.8896305155,316128839
Uruguay,URY,O,19589.5788382217,3407062
Uzbekistan,UZB,O,5167.0224170882,30241100
Vanuatu,VUT,O,2991.0257229779,252763
"Venezuela, RB",VEN,O,18193.920616068,30405207
Vietnam,VNM,O,5293.1807846247,89708900
"Yemen, Rep.",YEM,O,3958.3238575421,24407381
Zambia,ZMB,O,3180.6010530575,14538640
Zimbabwe,ZWE,O,1700.0166872663,14149648
